data/DarkRateMeasurements_07222021/917_100MHzScopePulses.CSV

Format,1.0B,
Memory Length,10000,
IntpDistance,0,
Trigger Address,4889,
Trigger Level,-4.000E-04,
Source,CH2,
Vertical Units,V,
Vertical Units Div,0,
Vertical Units Extend Div,15,
Label, ,
Probe Type,0,
Probe Ratio,1.000E+00,
Vertical Scale,2.000E-03,
Vertical Position,4.720E-03,
Horizontal Units,S,
Horizontal Scale,1.000E-07,
Horizontal Position,1.100E-07,
Horizontal Mode,Main,
SincET Mode,Real Time,
Sampling Period,1.000E-09,
Horizontal Old Scale,1.000E-07,
Horizontal Old Position,1.100E-07,
Firmware,V1.09,
Mode,Detail,
Waveform Data,
-4.890000e-06,0.00e+00,
-4.889000e-06,8.00e-05,
-4.888000e-06,8.00e-05,
-4.887000e-06,0.00e+00,
-4.886000e-06,-2.40e-04,
-4.885000e-06,-8.00e-05,
-4.884000e-06,-2.40e-04,
-4.883000e-06,0.00e+00,
-4.882000e-06,-8.00e-05,
-4.881000e-06,-8.00e-05,
-4.880000e-06,-2.40e-04,
-4.879000e-06,8.00e-05,
-4.878000e-06,-8.00e-05,
-4.877000e-06,-2.40e-04,
-4.876000e-06,-8.00e-05,
-4.875000e-06,-8.00e-05,
-4.874000e-06,-3.20e-04,
-4.873000e-06,-2.40e-04,
-4.872000e-06,-2.40e-04,
-4.871000e-06,-2.40e-04,
-4.870000e-06,-5.60e-04,
-4.869000e-06,-4.00e-04,
-4.868000e-06,-4.00e-04,
-4.867000e-06,-1.60e-04,
-4.866000e-06,-3.20e-04,
-4.865000e-06,-1.60e-04,
-4.864000e-06,0.00e+00,
-4.863000e-06,0.00e+00,
-4.862000e-06,-1.60e-04,
-4.861000e-06,-1.60e-04,
-4.860000e-06,-1.60e-04,
-4.859000e-06,8.00e-05,
-4.858000e-06,-1.60e-04,
-4.857000e-06,-2.40e-04,
-4.856000e-06,-2.40e-04,
-4.855000e-06,-2.40e-04,
-4.854000e-06,-3.20e-04,
-4.853000e-06,-3.20e-04,
-4.852000e-06,-4.80e-04,
-4.851000e-06,-1.60e-04,
-4.850000e-06,-1.60e-04,
-4.849000e-06,-1.60e-04,
-4.848000e-06,-8.00e-05,
-4.847000e-06,8.00e-05,
-4.846000e-06,0.00e+00,
-4.845000e-06,-1.60e-04,
-4.844000e-06,0.00e+00,
-4.843000e-06,0.00e+00,
-4.842000e-06,-8.00e-05,
-4.841000e-06,-8.00e-05,
-4.840000e-06,0.00e+00,
-4.839000e-06,-8.00e-05,
-4.838000e-06,-3.20e-04,
-4.837000e-06,-2.40e-04,
-4.836000e-06,-3.20e-04,
-4.835000e-06,-2.40e-04,
-4.834000e-06,-2.40e-04,
-4.833000e-06,-8.00e-05,
-4.832000e-06,8.00e-05,
-4.831000e-06,-2.40e-04,
-4.830000e-06,-2.40e-04,
-4.829000e-06,-4.00e-04,
-4.828000e-06,-2.40e-04,
-4.827000e-06,-8.00e-05,
-4.826000e-06,-2.40e-04,
-4.825000e-06,-2.40e-04,
-4.824000e-06,-2.40e-04,
-4.823000e-06,-1.60e-04,
-4.822000e-06,-1.60e-04,
-4.821000e-06,-3.20e-04,
-4.820000e-06,-3.20e-04,
-4.819000e-06,-8.00e-05,
-4.818000e-06,-1.60e-04,
-4.817000e-06,-1.60e-04,
-4.816000e-06,0.00e+00,
-4.815000e-06,8.00e-05,
-4.814000e-06,0.00e+00,
-4.813000e-06,-2.40e-04,
-4.812000e-06,-1.60e-04,
-4.811000e-06,1.60e-04,
-4.810000e-06,-2.40e-04,
-4.809000e-06,-3.20e-04,
-4.808000e-06,-2.40e-04,
-4.807000e-06,-8.00e-05,
-4.806000e-06,-4.00e-04,
-4.805000e-06,-2.40e-04,
-4.804000e-06,-4.00e-04,
-4.803000e-06,-4.00e-04,
-4.802000e-06,-3.20e-04,
-4.801000e-06,-1.60e-04,
-4.800000e-06,8.00e-05,
-4.799000e-06,-8.00e-05,
-4.798000e-06,0.00e+00,
-4.797000e-06,-3.20e-04,
-4.796000e-06,-1.60e-04,
-4.795000e-06,8.00e-05,
-4.794000e-06,0.00e+00,
-4.793000e-06,0.00e+00,
-4.792000e-06,2.40e-04,
-4.791000e-06,0.00e+00,
-4.790000e-06,-2.40e-04,
-4.789000e-06,-4.00e-04,
-4.788000e-06,-2.40e-04,
-4.787000e-06,0.00e+00,
-4.786000e-06,0.00e+00,
-4.785000e-06,0.00e+00,
-4.784000e-06,8.00e-05,
-4.783000e-06,0.00e+00,
-4.782000e-06,-1.60e-04,
-4.781000e-06,-2.40e-04,
-4.780000e-06,-2.40e-04,
-4.779000e-06,-1.60e-04,
-4.778000e-06,-1.60e-04,
-4.777000e-06,-8.00e-05,
-4.776000e-06,-8.00e-05,
-4.775000e-06,-1.60e-04,
-4.774000e-06,-3.20e-04,
-4.773000e-06,-1.60e-04,
-4.772000e-06,-3.20e-04,
-4.771000e-06,-8.00e-05,
-4.770000e-06,0.00e+00,
-4.769000e-06,0.00e+00,
-4.768000e-06,8.00e-05,
-4.767000e-06,2.40e-04,
-4.766000e-06,0.00e+00,
-4.765000e-06,-2.40e-04,
-4.764000e-06,-2.40e-04,
-4.763000e-06,0.00e+00,
-4.762000e-06,-1.60e-04,
-4.761000e-06,0.00e+00,
-4.760000e-06,0.00e+00,
-4.759000e-06,1.60e-04,
-4.758000e-06,-2.40e-04,
-4.757000e-06,-2.40e-04,
-4.756000e-06,-8.00e-05,
-4.755000e-06,-8.00e-05,
-4.754000e-06,-1.60e-04,
-4.753000e-06,-1.60e-04,
-4.752000e-06,0.00e+00,
-4.751000e-06,1.60e-04,
-4.750000e-06,-2.40e-04,
-4.749000e-06,-2.40e-04,
-4.748000e-06,-2.40e-04,
-4.747000e-06,0.00e+00,
-4.746000e-06,-1.60e-04,
-4.745000e-06,-1.60e-04,
-4.744000e-06,-1.60e-04,
-4.743000e-06,-1.60e-04,
-4.742000e-06,-2.40e-04,
-4.741000e-06,-8.00e-05,
-4.740000e-06,-2.40e-04,
-4.739000e-06,8.00e-05,
-4.738000e-06,-8.00e-05,
-4.737000e-06,-8.00e-05,
-4.736000e-06,0.00e+00,
-4.735000e-06,0.00e+00,
-4.734000e-06,-1.60e-04,
-4.733000e-06,-2.40e-04,
-4.732000e-06,-1.60e-04,
-4.731000e-06,0.00e+00,
-4.730000e-06,-1.60e-04,
-4.729000e-06,-1.60e-04,
-4.728000e-06,-8.00e-05,
-4.727000e-06,8.00e-05,
-4.726000e-06,-1.60e-04,
-4.725000e-06,-1.60e-04,
-4.724000e-06,-1.60e-04,
-4.723000e-06,8.00e-05,
-4.722000e-06,0.00e+00,
-4.721000e-06,1.60e-04,
-4.720000e-06,1.60e-04,
-4.719000e-06,2.40e-04,
-4.718000e-06,-1.60e-04,
-4.717000e-06,-1.60e-04,
-4.716000e-06,-1.60e-04,
-4.715000e-06,8.00e-05,
-4.714000e-06,-1.60e-04,
-4.713000e-06,-1.60e-04,
-4.712000e-06,-1.60e-04,
-4.711000e-06,8.00e-05,
-4.710000e-06,-8.00e-05,
-4.709000e-06,-2.40e-04,
-4.708000e-06,-2.40e-04,
-4.707000e-06,-8.00e-05,
-4.706000e-06,-2.40e-04,
-4.705000e-06,-8.00e-05,
-4.704000e-06,-8.00e-05,
-4.703000e-06,8.00e-05,
-4.702000e-06,0.00e+00,
-4.701000e-06,-2.40e-04,
-4.700000e-06,-4.00e-04,
-4.699000e-06,-8.00e-05,
-4.698000e-06,-2.40e-04,
-4.697000e-06,-2.40e-04,
-4.696000e-06,0.00e+00,
-4.695000e-06,0.00e+00,
-4.694000e-06,-1.60e-04,
-4.693000e-06,-8.00e-05,
-4.692000e-06,-1.60e-04,
-4.691000e-06,8.00e-05,
-4.690000e-06,-8.00e-05,
-4.689000e-06,-8.00e-05,
-4.688000e-06,8.00e-05,
-4.687000e-06,8.00e-05,
-4.686000e-06,-8.00e-05,
-4.685000e-06,-1.60e-04,
-4.684000e-06,-8.00e-05,
-4.683000e-06,8.00e-05,
-4.682000e-06,-1.60e-04,
-4.681000e-06,-1.60e-04,
-4.680000e-06,-8.00e-05,
-4.679000e-06,-8.00e-05,
-4.678000e-06,-3.20e-04,
-4.677000e-06,-1.60e-04,
-4.676000e-06,-1.60e-04,
-4.675000e-06,8.00e-05,
-4.674000e-06,-1.60e-04,
-4.673000e-06,-1.60e-04,
-4.672000e-06,0.00e+00,
-4.671000e-06,0.00e+00,
-4.670000e-06,-2.40e-04,
-4.669000e-06,-3.20e-04,
-4.668000e-06,-8.00e-05,
-4.667000e-06,-8.00e-05,
-4.666000e-06,-2.40e-04,
-4.665000e-06,-2.40e-04,
-4.664000e-06,-2.40e-04,
-4.663000e-06,-1.60e-04,
-4.662000e-06,-1.60e-04,
-4.661000e-06,-1.60e-04,
-4.660000e-06,-1.60e-04,
-4.659000e-06,0.00e+00,
-4.658000e-06,-1.60e-04,
-4.657000e-06,0.00e+00,
-4.656000e-06,1.60e-04,
-4.655000e-06,2.40e-04,
-4.654000e-06,-8.00e-05,
-4.653000e-06,-3.20e-04,
-4.652000e-06,-2.40e-04,
-4.651000e-06,0.00e+00,
-4.650000e-06,-2.40e-04,
-4.649000e-06,-1.60e-04,
-4.648000e-06,-1.60e-04,
-4.647000e-06,-1.60e-04,
-4.646000e-06,-1.60e-04,
-4.645000e-06,-1.60e-04,
-4.644000e-06,-1.60e-04,
-4.643000e-06,8.00e-05,
-4.642000e-06,-1.60e-04,
-4.641000e-06,0.00e+00,
-4.640000e-06,0.00e+00,
-4.639000e-06,0.00e+00,
-4.638000e-06,1.60e-04,
-4.637000e-06,-1.60e-04,
-4.636000e-06,0.00e+00,
-4.635000e-06,2.40e-04,
-4.634000e-06,0.00e+00,
-4.633000e-06,0.00e+00,
-4.632000e-06,0.00e+00,
-4.631000e-06,0.00e+00,
-4.630000e-06,-2.40e-04,
-4.629000e-06,-2.40e-04,
-4.628000e-06,-8.00e-05,
-4.627000e-06,1.60e-04,
-4.626000e-06,0.00e+00,
-4.625000e-06,-2.40e-04,
-4.624000e-06,-8.00e-05,
-4.623000e-06,1.60e-04,
-4.622000e-06,0.00e+00,
-4.621000e-06,-4.00e-04,
-4.620000e-06,-4.00e-04,
-4.619000e-06,0.00e+00,
-4.618000e-06,-1.60e-04,
-4.617000e-06,-1.60e-04,
-4.616000e-06,0.00e+00,
-4.615000e-06,8.00e-05,
-4.614000e-06,-2.40e-04,
-4.613000e-06,-1.60e-04,
-4.612000e-06,-2.40e-04,
-4.611000e-06,-1.60e-04,
-4.610000e-06,-1.60e-04,
-4.609000e-06,-8.00e-05,
-4.608000e-06,2.40e-04,
-4.607000e-06,8.00e-05,
-4.606000e-06,-8.00e-05,
-4.605000e-06,-3.20e-04,
-4.604000e-06,-1.60e-04,
-4.603000e-06,8.00e-05,
-4.602000e-06,0.00e+00,
-4.601000e-06,0.00e+00,
-4.600000e-06,0.00e+00,
-4.599000e-06,0.00e+00,
-4.598000e-06,-2.40e-04,
-4.597000e-06,-2.40e-04,
-4.596000e-06,-2.40e-04,
-4.595000e-06,0.00e+00,
-4.594000e-06,-2.40e-04,
-4.593000e-06,-2.40e-04,
-4.592000e-06,0.00e+00,
-4.591000e-06,0.00e+00,
-4.590000e-06,2.40e-04,
-4.589000e-06,0.00e+00,
-4.588000e-06,0.00e+00,
-4.587000e-06,0.00e+00,
-4.586000e-06,-4.00e-04,
-4.585000e-06,-2.40e-04,
-4.584000e-06,1.60e-04,
-4.583000e-06,0.00e+00,
-4.582000e-06,-1.60e-04,
-4.581000e-06,-8.00e-05,
-4.580000e-06,-1.60e-04,
-4.579000e-06,8.00e-05,
-4.578000e-06,-8.00e-05,
-4.577000e-06,-8.00e-05,
-4.576000e-06,-8.00e-05,
-4.575000e-06,8.00e-05,
-4.574000e-06,-1.60e-04,
-4.573000e-06,-1.60e-04,
-4.572000e-06,8.00e-05,
-4.571000e-06,2.40e-04,
-4.570000e-06,-1.60e-04,
-4.569000e-06,-3.20e-04,
-4.568000e-06,-8.00e-05,
-4.567000e-06,8.00e-05,
-4.566000e-06,-8.00e-05,
-4.565000e-06,-8.00e-05,
-4.564000e-06,-1.60e-04,
-4.563000e-06,-8.00e-05,
-4.562000e-06,-1.60e-04,
-4.561000e-06,-1.60e-04,
-4.560000e-06,8.00e-05,
-4.559000e-06,1.60e-04,
-4.558000e-06,8.00e-05,
-4.557000e-06,-3.20e-04,
-4.556000e-06,-1.60e-04,
-4.555000e-06,8.00e-05,
-4.554000e-06,-8.00e-05,
-4.553000e-06,-1.60e-04,
-4.552000e-06,8.00e-05,
-4.551000e-06,-1.60e-04,
-4.550000e-06,-3.20e-04,
-4.549000e-06,-8.00e-05,
-4.548000e-06,-1.60e-04,
-4.547000e-06,8.00e-05,
-4.546000e-06,-8.00e-05,
-4.545000e-06,-1.60e-04,
-4.544000e-06,8.00e-05,
-4.543000e-06,8.00e-05,
-4.542000e-06,8.00e-05,
-4.541000e-06,-1.60e-04,
-4.540000e-06,-8.00e-05,
-4.539000e-06,-8.00e-05,
-4.538000e-06,-2.40e-04,
-4.537000e-06,-8.00e-05,
-4.536000e-06,8.00e-05,
-4.535000e-06,-2.40e-04,
-4.534000e-06,-2.40e-04,
-4.533000e-06,-3.20e-04,
-4.532000e-06,-3.20e-04,
-4.531000e-06,-8.00e-05,
-4.530000e-06,-2.40e-04,
-4.529000e-06,-8.00e-05,
-4.528000e-06,0.00e+00,
-4.527000e-06,0.00e+00,
-4.526000e-06,0.00e+00,
-4.525000e-06,-2.40e-04,
-4.524000e-06,-1.60e-04,
-4.523000e-06,8.00e-05,
-4.522000e-06,-2.40e-04,
-4.521000e-06,-4.00e-04,
-4.520000e-06,-1.60e-04,
-4.519000e-06,-1.60e-04,
-4.518000e-06,0.00e+00,
-4.517000e-06,-1.60e-04,
-4.516000e-06,-3.20e-04,
-4.515000e-06,0.00e+00,
-4.514000e-06,-8.00e-05,
-4.513000e-06,-8.00e-05,
-4.512000e-06,1.60e-04,
-4.511000e-06,0.00e+00,
-4.510000e-06,-8.00e-05,
-4.509000e-06,-1.60e-04,
-4.508000e-06,-8.00e-05,
-4.507000e-06,8.00e-05,
-4.506000e-06,-2.40e-04,
-4.505000e-06,-2.40e-04,
-4.504000e-06,-2.40e-04,
-4.503000e-06,-8.00e-05,
-4.502000e-06,-2.40e-04,
-4.501000e-06,-1.60e-04,
-4.500000e-06,-1.60e-04,
-4.499000e-06,1.60e-04,
-4.498000e-06,-2.40e-04,
-4.497000e-06,-8.00e-05,
-4.496000e-06,0.00e+00,
-4.495000e-06,-8.00e-05,
-4.494000e-06,0.00e+00,
-4.493000e-06,-2.40e-04,
-4.492000e-06,-1.60e-04,
-4.491000e-06,0.00e+00,
-4.490000e-06,-2.40e-04,
-4.489000e-06,-1.60e-04,
-4.488000e-06,-1.60e-04,
-4.487000e-06,0.00e+00,
-4.486000e-06,-1.60e-04,
-4.485000e-06,-1.60e-04,
-4.484000e-06,-1.60e-04,
-4.483000e-06,0.00e+00,
-4.482000e-06,-8.00e-05,
-4.481000e-06,0.00e+00,
-4.480000e-06,1.60e-04,
-4.479000e-06,0.00e+00,
-4.478000e-06,-8.00e-05,
-4.477000e-06,-3.20e-04,
-4.476000e-06,-1.60e-04,
-4.475000e-06,8.00e-05,
-4.474000e-06,-1.60e-04,
-4.473000e-06,-3.20e-04,
-4.472000e-06,-1.60e-04,
-4.471000e-06,-8.00e-05,
-4.470000e-06,-1.60e-04,
-4.469000e-06,-8.00e-05,
-4.468000e-06,-1.60e-04,
-4.467000e-06,-8.00e-05,
-4.466000e-06,-2.40e-04,
-4.465000e-06,-2.40e-04,
-4.464000e-06,1.60e-04,
-4.463000e-06,8.00e-05,
-4.462000e-06,8.00e-05,
-4.461000e-06,-8.00e-05,
-4.460000e-06,-8.00e-05,
-4.459000e-06,8.00e-05,
-4.458000e-06,-2.40e-04,
-4.457000e-06,-2.40e-04,
-4.456000e-06,0.00e+00,
-4.455000e-06,-2.40e-04,
-4.454000e-06,-2.40e-04,
-4.453000e-06,0.00e+00,
-4.452000e-06,-8.00e-05,
-4.451000e-06,0.00e+00,
-4.450000e-06,-2.40e-04,
-4.449000e-06,-3.20e-04,
-4.448000e-06,-2.40e-04,
-4.447000e-06,1.60e-04,
-4.446000e-06,0.00e+00,
-4.445000e-06,-3.20e-04,
-4.444000e-06,-3.20e-04,
-4.443000e-06,-8.00e-05,
-4.442000e-06,-1.60e-04,
-4.441000e-06,0.00e+00,
-4.440000e-06,0.00e+00,
-4.439000e-06,-1.60e-04,
-4.438000e-06,0.00e+00,
-4.437000e-06,-2.40e-04,
-4.436000e-06,-1.60e-04,
-4.435000e-06,1.60e-04,
-4.434000e-06,-8.00e-05,
-4.433000e-06,-8.00e-05,
-4.432000e-06,-2.40e-04,
-4.431000e-06,-8.00e-05,
-4.430000e-06,-4.00e-04,
-4.429000e-06,-2.40e-04,
-4.428000e-06,-2.40e-04,
-4.427000e-06,-1.60e-04,
-4.426000e-06,-3.20e-04,
-4.425000e-06,-3.20e-04,
-4.424000e-06,0.00e+00,
-4.423000e-06,0.00e+00,
-4.422000e-06,-1.60e-04,
-4.421000e-06,-2.40e-04,
-4.420000e-06,-4.00e-04,
-4.419000e-06,-2.40e-04,
-4.418000e-06,-5.60e-04,
-4.417000e-06,-4.00e-04,
-4.416000e-06,0.00e+00,
-4.415000e-06,1.60e-04,
-4.414000e-06,-8.00e-05,
-4.413000e-06,-4.80e-04,
-4.412000e-06,-8.00e-05,
-4.411000e-06,8.00e-05,
-4.410000e-06,-1.60e-04,
-4.409000e-06,-1.60e-04,
-4.408000e-06,0.00e+00,
-4.407000e-06,-1.60e-04,
-4.406000e-06,-2.40e-04,
-4.405000e-06,-1.60e-04,
-4.404000e-06,-2.40e-04,
-4.403000e-06,0.00e+00,
-4.402000e-06,-2.40e-04,
-4.401000e-06,-1.60e-04,
-4.400000e-06,1.60e-04,
-4.399000e-06,1.60e-04,
-4.398000e-06,0.00e+00,
-4.397000e-06,-3.20e-04,
-4.396000e-06,-1.60e-04,
-4.395000e-06,8.00e-05,
-4.394000e-06,0.00e+00,
-4.393000e-06,0.00e+00,
-4.392000e-06,0.00e+00,
-4.391000e-06,0.00e+00,
-4.390000e-06,-4.00e-04,
-4.389000e-06,-4.80e-04,
-4.388000e-06,-4.00e-04,
-4.387000e-06,-8.00e-05,
-4.386000e-06,-2.40e-04,
-4.385000e-06,-2.40e-04,
-4.384000e-06,-1.60e-04,
-4.383000e-06,0.00e+00,
-4.382000e-06,-8.00e-05,
-4.381000e-06,-1.60e-04,
-4.380000e-06,-8.00e-05,
-4.379000e-06,8.00e-05,
-4.378000e-06,-1.60e-04,
-4.377000e-06,-2.40e-04,
-4.376000e-06,-1.60e-04,
-4.375000e-06,-2.40e-04,
-4.374000e-06,-4.00e-04,
-4.373000e-06,-2.40e-04,
-4.372000e-06,-4.00e-04,
-4.371000e-06,-8.00e-05,
-4.370000e-06,-2.40e-04,
-4.369000e-06,-2.40e-04,
-4.368000e-06,0.00e+00,
-4.367000e-06,2.40e-04,
-4.366000e-06,-8.00e-05,
-4.365000e-06,-4.00e-04,
-4.364000e-06,-2.40e-04,
-4.363000e-06,0.00e+00,
-4.362000e-06,-8.00e-05,
-4.361000e-06,-8.00e-05,
-4.360000e-06,-8.00e-05,
-4.359000e-06,0.00e+00,
-4.358000e-06,-3.20e-04,
-4.357000e-06,-3.20e-04,
-4.356000e-06,-2.40e-04,
-4.355000e-06,8.00e-05,
-4.354000e-06,-2.40e-04,
-4.353000e-06,-2.40e-04,
-4.352000e-06,8.00e-05,
-4.351000e-06,-8.00e-05,
-4.350000e-06,-2.40e-04,
-4.349000e-06,-8.00e-05,
-4.348000e-06,-8.00e-05,
-4.347000e-06,1.60e-04,
-4.346000e-06,-2.40e-04,
-4.345000e-06,-2.40e-04,
-4.344000e-06,-1.60e-04,
-4.343000e-06,-1.60e-04,
-4.342000e-06,-1.60e-04,
-4.341000e-06,-3.20e-04,
-4.340000e-06,-3.20e-04,
-4.339000e-06,0.00e+00,
-4.338000e-06,0.00e+00,
-4.337000e-06,-1.60e-04,
-4.336000e-06,0.00e+00,
-4.335000e-06,8.00e-05,
-4.334000e-06,-1.60e-04,
-4.333000e-06,-2.40e-04,
-4.332000e-06,-1.60e-04,
-4.331000e-06,0.00e+00,
-4.330000e-06,-1.60e-04,
-4.329000e-06,-3.20e-04,
-4.328000e-06,-1.60e-04,
-4.327000e-06,-1.60e-04,
-4.326000e-06,-3.20e-04,
-4.325000e-06,-3.20e-04,
-4.324000e-06,-1.60e-04,
-4.323000e-06,0.00e+00,
-4.322000e-06,-2.40e-04,
-4.321000e-06,-8.00e-05,
-4.320000e-06,0.00e+00,
-4.319000e-06,1.60e-04,
-4.318000e-06,8.00e-05,
-4.317000e-06,-3.20e-04,
-4.316000e-06,-2.40e-04,
-4.315000e-06,8.00e-05,
-4.314000e-06,-2.40e-04,
-4.313000e-06,-2.40e-04,
-4.312000e-06,0.00e+00,
-4.311000e-06,-8.00e-05,
-4.310000e-06,-4.00e-04,
-4.309000e-06,-2.40e-04,
-4.308000e-06,-2.40e-04,
-4.307000e-06,-1.60e-04,
-4.306000e-06,-1.60e-04,
-4.305000e-06,-1.60e-04,
-4.304000e-06,8.00e-05,
-4.303000e-06,-8.00e-05,
-4.302000e-06,8.00e-05,
-4.301000e-06,-1.60e-04,
-4.300000e-06,-8.00e-05,
-4.299000e-06,8.00e-05,
-4.298000e-06,-1.60e-04,
-4.297000e-06,-1.60e-04,
-4.296000e-06,0.00e+00,
-4.295000e-06,-1.60e-04,
-4.294000e-06,-8.00e-05,
-4.293000e-06,0.00e+00,
-4.292000e-06,-2.40e-04,
-4.291000e-06,1.60e-04,
-4.290000e-06,-2.40e-04,
-4.289000e-06,-3.20e-04,
-4.288000e-06,-2.40e-04,
-4.287000e-06,-2.40e-04,
-4.286000e-06,-2.40e-04,
-4.285000e-06,-2.40e-04,
-4.284000e-06,-2.40e-04,
-4.283000e-06,8.00e-05,
-4.282000e-06,-2.40e-04,
-4.281000e-06,-2.40e-04,
-4.280000e-06,0.00e+00,
-4.279000e-06,-8.00e-05,
-4.278000e-06,-2.40e-04,
-4.277000e-06,-1.60e-04,
-4.276000e-06,-1.60e-04,
-4.275000e-06,-1.60e-04,
-4.274000e-06,-4.00e-04,
-4.273000e-06,-1.60e-04,
-4.272000e-06,-1.60e-04,
-4.271000e-06,0.00e+00,
-4.270000e-06,8.00e-05,
-4.269000e-06,-1.60e-04,
-4.268000e-06,-1.60e-04,
-4.267000e-06,8.00e-05,
-4.266000e-06,0.00e+00,
-4.265000e-06,0.00e+00,
-4.264000e-06,0.00e+00,
-4.263000e-06,0.00e+00,
-4.262000e-06,-3.20e-04,
-4.261000e-06,-2.40e-04,
-4.260000e-06,-2.40e-04,
-4.259000e-06,0.00e+00,
-4.258000e-06,-2.40e-04,
-4.257000e-06,-2.40e-04,
-4.256000e-06,0.00e+00,
-4.255000e-06,0.00e+00,
-4.254000e-06,-1.60e-04,
-4.253000e-06,-1.60e-04,
-4.252000e-06,-1.60e-04,
-4.251000e-06,0.00e+00,
-4.250000e-06,-2.40e-04,
-4.249000e-06,-2.40e-04,
-4.248000e-06,-2.40e-04,
-4.247000e-06,-8.00e-05,
-4.246000e-06,-2.40e-04,
-4.245000e-06,-2.40e-04,
-4.244000e-06,-2.40e-04,
-4.243000e-06,0.00e+00,
-4.242000e-06,0.00e+00,
-4.241000e-06,-1.60e-04,
-4.240000e-06,8.00e-05,
-4.239000e-06,0.00e+00,
-4.238000e-06,-1.60e-04,
-4.237000e-06,-2.40e-04,
-4.236000e-06,0.00e+00,
-4.235000e-06,0.00e+00,
-4.234000e-06,0.00e+00,
-4.233000e-06,-1.60e-04,
-4.232000e-06,0.00e+00,
-4.231000e-06,0.00e+00,
-4.230000e-06,-1.60e-04,
-4.229000e-06,0.00e+00,
-4.228000e-06,-1.60e-04,
-4.227000e-06,0.00e+00,
-4.226000e-06,-2.40e-04,
-4.225000e-06,-8.00e-05,
-4.224000e-06,0.00e+00,
-4.223000e-06,0.00e+00,
-4.222000e-06,-1.60e-04,
-4.221000e-06,-1.60e-04,
-4.220000e-06,1.60e-04,
-4.219000e-06,1.60e-04,
-4.218000e-06,-2.40e-04,
-4.217000e-06,-8.00e-05,
-4.216000e-06,-2.40e-04,
-4.215000e-06,-2.40e-04,
-4.214000e-06,-4.00e-04,
-4.213000e-06,-2.40e-04,
-4.212000e-06,-4.00e-04,
-4.211000e-06,-2.40e-04,
-4.210000e-06,-1.60e-04,
-4.209000e-06,-1.60e-04,
-4.208000e-06,0.00e+00,
-4.207000e-06,2.40e-04,
-4.206000e-06,1.60e-04,
-4.205000e-06,-8.00e-05,
-4.204000e-06,-2.40e-04,
-4.203000e-06,-2.40e-04,
-4.202000e-06,-2.40e-04,
-4.201000e-06,0.00e+00,
-4.200000e-06,0.00e+00,
-4.199000e-06,1.60e-04,
-4.198000e-06,-2.40e-04,
-4.197000e-06,-4.00e-04,
-4.196000e-06,-4.00e-04,
-4.195000e-06,-8.00e-05,
-4.194000e-06,0.00e+00,
-4.193000e-06,0.00e+00,
-4.192000e-06,8.00e-05,
-4.191000e-06,8.00e-05,
-4.190000e-06,-2.40e-04,
-4.189000e-06,-2.40e-04,
-4.188000e-06,-1.60e-04,
-4.187000e-06,0.00e+00,
-4.186000e-06,-2.40e-04,
-4.185000e-06,-2.40e-04,
-4.184000e-06,0.00e+00,
-4.183000e-06,0.00e+00,
-4.182000e-06,-2.40e-04,
-4.181000e-06,-2.40e-04,
-4.180000e-06,-2.40e-04,
-4.179000e-06,0.00e+00,
-4.178000e-06,-1.60e-04,
-4.177000e-06,0.00e+00,
-4.176000e-06,0.00e+00,
-4.175000e-06,0.00e+00,
-4.174000e-06,8.00e-05,
-4.173000e-06,-3.20e-04,
-4.172000e-06,-1.60e-04,
-4.171000e-06,8.00e-05,
-4.170000e-06,-1.60e-04,
-4.169000e-06,0.00e+00,
-4.168000e-06,0.00e+00,
-4.167000e-06,0.00e+00,
-4.166000e-06,-3.20e-04,
-4.165000e-06,-3.20e-04,
-4.164000e-06,-3.20e-04,
-4.163000e-06,8.00e-05,
-4.162000e-06,-8.00e-05,
-4.161000e-06,-8.00e-05,
-4.160000e-06,0.00e+00,
-4.159000e-06,0.00e+00,
-4.158000e-06,2.40e-04,
-4.157000e-06,0.00e+00,
-4.156000e-06,1.60e-04,
-4.155000e-06,2.40e-04,
-4.154000e-06,-2.40e-04,
-4.153000e-06,-2.40e-04,
-4.152000e-06,-8.00e-05,
-4.151000e-06,0.00e+00,
-4.150000e-06,-1.60e-04,
-4.149000e-06,-2.40e-04,
-4.148000e-06,-2.40e-04,
-4.147000e-06,0.00e+00,
-4.146000e-06,-2.40e-04,
-4.145000e-06,-8.00e-05,
-4.144000e-06,1.60e-04,
-4.143000e-06,1.60e-04,
-4.142000e-06,0.00e+00,
-4.141000e-06,0.00e+00,
-4.140000e-06,0.00e+00,
-4.139000e-06,2.40e-04,
-4.138000e-06,-8.00e-05,
-4.137000e-06,-2.40e-04,
-4.136000e-06,-8.00e-05,
-4.135000e-06,-8.00e-05,
-4.134000e-06,-2.40e-04,
-4.133000e-06,-8.00e-05,
-4.132000e-06,-2.40e-04,
-4.131000e-06,-2.40e-04,
-4.130000e-06,-4.00e-04,
-4.129000e-06,-2.40e-04,
-4.128000e-06,1.60e-04,
-4.127000e-06,2.40e-04,
-4.126000e-06,1.60e-04,
-4.125000e-06,-2.40e-04,
-4.124000e-06,-2.40e-04,
-4.123000e-06,0.00e+00,
-4.122000e-06,-1.60e-04,
-4.121000e-06,-1.60e-04,
-4.120000e-06,0.00e+00,
-4.119000e-06,0.00e+00,
-4.118000e-06,-4.00e-04,
-4.117000e-06,-2.40e-04,
-4.116000e-06,-1.60e-04,
-4.115000e-06,1.60e-04,
-4.114000e-06,8.00e-05,
-4.113000e-06,0.00e+00,
-4.112000e-06,8.00e-05,
-4.111000e-06,8.00e-05,
-4.110000e-06,1.60e-04,
-4.109000e-06,0.00e+00,
-4.108000e-06,-8.00e-05,
-4.107000e-06,0.00e+00,
-4.106000e-06,-1.60e-04,
-4.105000e-06,-8.00e-05,
-4.104000e-06,-1.60e-04,
-4.103000e-06,-8.00e-05,
-4.102000e-06,-1.60e-04,
